<?xml version="1.0" encoding="UTF-8" standalone="no"?>
<!-- Generator: Adobe Illustrator 19.0.0, SVG Export Plug-In . SVG Version: 6.00 Build 0)  -->

<svg
   xmlns:dc="http://purl.org/dc/elements/1.1/"
   xmlns:cc="http://creativecommons.org/ns#"
   xmlns:rdf="http://www.w3.org/1999/02/22-rdf-syntax-ns#"
   xmlns:svg="http://www.w3.org/2000/svg"
   xmlns="http://www.w3.org/2000/svg"
   xmlns:sodipodi="http://sodipodi.sourceforge.net/DTD/sodipodi-0.dtd"
   xmlns:inkscape="http://www.inkscape.org/namespaces/inkscape"
   version="1.1"
   id="Capa_1"
   x="0px"
   y="0px"
   viewBox="0 0 512 512"
   style="enable-background:new 0 0 512 512;"
   xml:space="preserve"
   sodipodi:docname="chats.svg"
   inkscape:version="0.92.4 (5da689c313, 2019-01-14)"><metadata
   id="metadata1096"><rdf:RDF><cc:Work
       rdf:about=""><dc:format>image/svg+xml</dc:format><dc:type
         rdf:resource="http://purl.org/dc/dcmitype/StillImage" /></cc:Work></rdf:RDF></metadata><defs
   id="defs1094" /><sodipodi:namedview
   pagecolor="#ffffff"
   bordercolor="#666666"
   borderopacity="1"
   objecttolerance="10"
   gridtolerance="10"
   guidetolerance="10"
   inkscape:pageopacity="0"
   inkscape:pageshadow="2"
   inkscape:window-width="1846"
   inkscape:window-height="1023"
   id="namedview1092"
   showgrid="false"
   inkscape:zoom="0.79687501"
   inkscape:cx="242.39021"
   inkscape:cy="399.07733"
   inkscape:window-x="74"
   inkscape:window-y="27"
   inkscape:window-maximized="1"
   inkscape:current-layer="Capa_1" />
<g
   id="g1059"
   style="fill:#0c3163;fill-opacity:1;stroke:#0c3163;stroke-width:5.68947336;stroke-miterlimit:4;stroke-dasharray:none;stroke-opacity:1"
   transform="matrix(0.96190905,0,0,0.96190905,9.7512832,9.7517642)">
	<g
   id="g1057"
   style="fill:#0c3163;fill-opacity:1;stroke:#0c3163;stroke-width:5.68947336;stroke-miterlimit:4;stroke-dasharray:none;stroke-opacity:1">
		<g
   id="g1055"
   style="fill:#0c3163;fill-opacity:1;stroke:#0c3163;stroke-width:5.68947336;stroke-miterlimit:4;stroke-dasharray:none;stroke-opacity:1">
			<path
   d="M 486.4,59.733 H 25.6 C 11.462,59.733 0,71.194 0,85.333 v 341.333 c 0,14.138 11.461,25.6 25.6,25.6 h 460.8 c 14.138,0 25.6,-11.461 25.6,-25.6 V 85.333 c 0,-14.138 -11.461,-25.6 -25.6,-25.6 z m 8.533,366.934 c 0,4.713 -3.82,8.533 -8.533,8.533 H 25.6 c -4.713,0 -8.533,-3.82 -8.533,-8.533 V 85.333 c 0,-4.713 3.82,-8.533 8.533,-8.533 h 460.8 c 4.713,0 8.533,3.82 8.533,8.533 z"
   id="path1047"
   style="fill:#0c3163;fill-opacity:1;stroke:#0c3163;stroke-width:5.68947336;stroke-miterlimit:4;stroke-dasharray:none;stroke-opacity:1"
   inkscape:connector-curvature="0" />
			<path
   d="m 470.076,93.898 c -2.255,-0.197 -4.496,0.51 -6.229,1.966 L 266.982,261.239 c -6.349,5.337 -15.616,5.337 -21.965,0 L 48.154,95.863 c -2.335,-1.96 -5.539,-2.526 -8.404,-1.484 -2.865,1.042 -4.957,3.534 -5.487,6.537 -0.53,3.003 0.582,6.06 2.917,8.02 l 196.864,165.367 c 12.688,10.683 31.224,10.683 43.913,0 L 474.82,108.937 c 1.734,-1.455 2.818,-3.539 3.015,-5.794 0.197,-2.255 -0.51,-4.496 -1.966,-6.229 -1.454,-1.735 -3.538,-2.819 -5.793,-3.016 z"
   id="path1049"
   style="fill:#0c3163;fill-opacity:1;stroke:#0c3163;stroke-width:5.68947336;stroke-miterlimit:4;stroke-dasharray:none;stroke-opacity:1"
   inkscape:connector-curvature="0" />
			<path
   d="m 164.124,273.13 c -3.021,-0.674 -6.169,0.34 -8.229,2.65 l -119.467,128 c -2.162,2.214 -2.956,5.426 -2.074,8.392 0.882,2.967 3.301,5.223 6.321,5.897 3.021,0.674 6.169,-0.34 8.229,-2.65 l 119.467,-128 c 2.162,-2.214 2.956,-5.426 2.074,-8.392 -0.882,-2.966 -3.3,-5.223 -6.321,-5.897 z"
   id="path1051"
   style="fill:#0c3163;fill-opacity:1;stroke:#0c3163;stroke-width:5.68947336;stroke-miterlimit:4;stroke-dasharray:none;stroke-opacity:1"
   inkscape:connector-curvature="0" />
			<path
   d="m 356.105,275.78 c -2.059,-2.31 -5.208,-3.324 -8.229,-2.65 -3.021,0.674 -5.439,2.931 -6.321,5.897 -0.882,2.967 -0.088,6.178 2.074,8.392 l 119.467,128 c 3.24,3.318 8.536,3.442 11.927,0.278 3.391,-3.164 3.635,-8.456 0.549,-11.918 z"
   id="path1053"
   style="fill:#0c3163;fill-opacity:1;stroke:#0c3163;stroke-width:5.68947336;stroke-miterlimit:4;stroke-dasharray:none;stroke-opacity:1"
   inkscape:connector-curvature="0" />
		</g>
	</g>
</g>
<g
   id="g1061">
</g>
<g
   id="g1063">
</g>
<g
   id="g1065">
</g>
<g
   id="g1067">
</g>
<g
   id="g1069">
</g>
<g
   id="g1071">
</g>
<g
   id="g1073">
</g>
<g
   id="g1075">
</g>
<g
   id="g1077">
</g>
<g
   id="g1079">
</g>
<g
   id="g1081">
</g>
<g
   id="g1083">
</g>
<g
   id="g1085">
</g>
<g
   id="g1087">
</g>
<g
   id="g1089">
</g>
</svg>